﻿

A sandbox is a testing environment that isolates untested code changes and 
outright experimentation from the production environment or repository,[1] 
in the context of software development including Web development and revision control.

--------------------------------------------------------------------------------

Searchable GridView in ASP.NET using dll

http://www.c-sharpcorner.com/blogs/searchable-gridview-in-asp-net-using-dll1

------------------------------------------------------------------------------

https://stackoverflow.com/questions/30146036/how-can-i-run-grocery-with-sql-server

------------------------------------------------------------------------------

https://stackoverflow.com/questions/1666797/how-to-include-javascript-file-in-asp-net-page

------------------------------------------------------------------------------